eda_004_cnt4_to_16_20200614/simulation/qsim/cnt4_to_16.msim.vcd
$comment
	File created using the following command:
		vcd file cnt4_to_16.msim.vcd -direction
$end
$date
	Tue Jun 16 11:27:09 2020
$end
$version
	ModelSim Version 10.1d
$end
$timescale
	1ps
$end
$scope module cnt4_to_16_vlg_vec_tst $end
$var reg 1 ! clk $end
$var reg 1 " rst $end
$var wire 1 # co $end
$var wire 1 $ q [1] $end
$var wire 1 % q [0] $end
$var wire 1 & sampler $end
$scope module i1 $end
$var wire 1 ' gnd $end
$var wire 1 ( vcc $end
$var wire 1 ) unknown $end
$var tri1 1 * devclrn $end
$var tri1 1 + devpor $end
$var tri1 1 , devoe $end
$var wire 1 - co~output_o $end
$var wire 1 . q[0]~output_o $end
$var wire 1 / q[1]~output_o $end
$var wire 1 0 clk~input_o $end
$var wire 1 1 clk~inputclkctrl_outclk $end
$var wire 1 2 q[0]~1_combout $end
$var wire 1 3 rst~input_o $end
$var wire 1 4 rst~inputclkctrl_outclk $end
$var wire 1 5 q[0]~reg0_q $end
$var wire 1 6 q[1]~0_combout $end
$var wire 1 7 q[1]~reg0_q $end
$var wire 1 8 Equal0~0_combout $end
$var wire 1 9 co~reg0_q $end
$upscope $end
$upscope $end
$enddefinitions $end
#0
$dumpvars
1!
0"
x#
x%
x$
x&
0'
1(
x)
1*
1+
1,
x-
x.
x/
10
x1
12
03
x4
05
x6
07
x8
09
$end
#208
04
#222
11
#558
06
#717
08
#3545
0-
0#
#3574
0/
0$
#5499
0.
0%
#8960000
1"
0&
#8960766
13
