eda_005_sled_20200620/simulation/qsim/sled_17990425.msim.vcd
$comment
	File created using the following command:
		vcd file sled_17990425.msim.vcd -direction
$end
$date
	Sat Jun 20 09:30:14 2020
$end
$version
	ModelSim Version 10.1d
$end
$timescale
	1ps
$end
$scope module sled_vlg_vec_tst $end
$var reg 1 ! CLK_48M $end
$var wire 1 " dig [7] $end
$var wire 1 # dig [6] $end
$var wire 1 $ dig [5] $end
$var wire 1 % dig [4] $end
$var wire 1 & dig [3] $end
$var wire 1 ' dig [2] $end
$var wire 1 ( dig [1] $end
$var wire 1 ) dig [0] $end
$var wire 1 * seg [7] $end
$var wire 1 + seg [6] $end
$var wire 1 , seg [5] $end
$var wire 1 - seg [4] $end
$var wire 1 . seg [3] $end
$var wire 1 / seg [2] $end
$var wire 1 0 seg [1] $end
$var wire 1 1 seg [0] $end
$var wire 1 2 sampler $end
$scope module i1 $end
$var wire 1 3 gnd $end
$var wire 1 4 vcc $end
$var wire 1 5 unknown $end
$var tri1 1 6 devclrn $end
$var tri1 1 7 devpor $end
$var tri1 1 8 devoe $end
$var wire 1 9 dig[7]~output_o $end
$var wire 1 : dig[6]~output_o $end
$var wire 1 ; dig[5]~output_o $end
$var wire 1 < dig[4]~output_o $end
$var wire 1 = dig[3]~output_o $end
$var wire 1 > dig[2]~output_o $end
$var wire 1 ? dig[1]~output_o $end
$var wire 1 @ dig[0]~output_o $end
$var wire 1 A seg[7]~output_o $end
$var wire 1 B seg[6]~output_o $end
$var wire 1 C seg[5]~output_o $end
$var wire 1 D seg[4]~output_o $end
$var wire 1 E seg[3]~output_o $end
$var wire 1 F seg[2]~output_o $end
$var wire 1 G seg[1]~output_o $end
$var wire 1 H seg[0]~output_o $end
$var wire 1 I CLK_48M~input_o $end
$var wire 1 J CLK_48M~inputclkctrl_outclk $end
$var wire 1 K inst6|LPM_COUNTER_component|auto_generated|counter_comb_bita0~combout $end
$var wire 1 L ~GND~combout $end
$var wire 1 M inst6|LPM_COUNTER_component|auto_generated|cmpr1|aneb_result_wire[0]~6_combout $end
$var wire 1 N inst6|LPM_COUNTER_component|auto_generated|cmpr1|aneb_result_wire[0]~5_combout $end
$var wire 1 O inst6|LPM_COUNTER_component|auto_generated|cmpr1|aneb_result_wire[0]~7_combout $end
$var wire 1 P inst6|LPM_COUNTER_component|auto_generated|cmpr1|aneb_result_wire[0]~2_combout $end
$var wire 1 Q inst6|LPM_COUNTER_component|auto_generated|cmpr1|aneb_result_wire[0]~3_combout $end
$var wire 1 R inst6|LPM_COUNTER_component|auto_generated|cmpr1|aneb_result_wire[0]~1_combout $end
$var wire 1 S inst6|LPM_COUNTER_component|auto_generated|cmpr1|aneb_result_wire[0]~0_combout $end
$var wire 1 T inst6|LPM_COUNTER_component|auto_generated|cmpr1|aneb_result_wire[0]~4_combout $end
$var wire 1 U inst6|LPM_COUNTER_component|auto_generated|counter_comb_bita25~COUT $end
$var wire 1 V inst6|LPM_COUNTER_component|auto_generated|counter_comb_bita25~0_combout $end
$var wire 1 W inst6|LPM_COUNTER_component|auto_generated|cout_actual~combout $end
$var wire 1 X inst6|LPM_COUNTER_component|auto_generated|counter_comb_bita0~COUT $end
$var wire 1 Y inst6|LPM_COUNTER_component|auto_generated|counter_comb_bita1~combout $end
$var wire 1 Z inst6|LPM_COUNTER_component|auto_generated|counter_comb_bita1~COUT $end
$var wire 1 [ inst6|LPM_COUNTER_component|auto_generated|counter_comb_bita2~combout $end
$var wire 1 \ inst6|LPM_COUNTER_component|auto_generated|counter_comb_bita2~COUT $end
$var wire 1 ] inst6|LPM_COUNTER_component|auto_generated|counter_comb_bita3~combout $end
$var wire 1 ^ inst6|LPM_COUNTER_component|auto_generated|counter_comb_bita3~COUT $end
$var wire 1 _ inst6|LPM_COUNTER_component|auto_generated|counter_comb_bita4~combout $end
$var wire 1 ` inst6|LPM_COUNTER_component|auto_generated|counter_comb_bita4~COUT $end
$var wire 1 a inst6|LPM_COUNTER_component|auto_generated|counter_comb_bita5~combout $end
$var wire 1 b inst6|LPM_COUNTER_component|auto_generated|counter_comb_bita5~COUT $end
$var wire 1 c inst6|LPM_COUNTER_component|auto_generated|counter_comb_bita6~combout $end
$var wire 1 d inst6|LPM_COUNTER_component|auto_generated|counter_comb_bita6~COUT $end
$var wire 1 e inst6|LPM_COUNTER_component|auto_generated|counter_comb_bita7~combout $end
$var wire 1 f inst6|LPM_COUNTER_component|auto_generated|counter_comb_bita7~COUT $end
$var wire 1 g inst6|LPM_COUNTER_component|auto_generated|counter_comb_bita8~combout $end
$var wire 1 h inst6|LPM_COUNTER_component|auto_generated|counter_comb_bita8~COUT $end
$var wire 1 i inst6|LPM_COUNTER_component|auto_generated|counter_comb_bita9~combout $end
$var wire 1 j inst6|LPM_COUNTER_component|auto_generated|counter_comb_bita9~COUT $end
$var wire 1 k inst6|LPM_COUNTER_component|auto_generated|counter_comb_bita10~combout $end
$var wire 1 l inst6|LPM_COUNTER_component|auto_generated|counter_comb_bita10~COUT $end
$var wire 1 m inst6|LPM_COUNTER_component|auto_generated|counter_comb_bita11~combout $end
$var wire 1 n inst6|LPM_COUNTER_component|auto_generated|counter_comb_bita11~COUT $end
$var wire 1 o inst6|LPM_COUNTER_component|auto_generated|counter_comb_bita12~combout $end
$var wire 1 p inst6|LPM_COUNTER_component|auto_generated|counter_comb_bita12~COUT $end
$var wire 1 q inst6|LPM_COUNTER_component|auto_generated|counter_comb_bita13~combout $end
$var wire 1 r inst6|LPM_COUNTER_component|auto_generated|counter_comb_bita13~COUT $end
$var wire 1 s inst6|LPM_COUNTER_component|auto_generated|counter_comb_bita14~combout $end
$var wire 1 t inst6|LPM_COUNTER_component|auto_generated|counter_comb_bita14~COUT $end
$var wire 1 u inst6|LPM_COUNTER_component|auto_generated|counter_comb_bita15~combout $end
$var wire 1 v inst6|LPM_COUNTER_component|auto_generated|counter_comb_bita15~COUT $end
$var wire 1 w inst6|LPM_COUNTER_component|auto_generated|counter_comb_bita16~combout $end
$var wire 1 x inst6|LPM_COUNTER_component|auto_generated|counter_comb_bita16~COUT $end
$var wire 1 y inst6|LPM_COUNTER_component|auto_generated|counter_comb_bita17~combout $end
$var wire 1 z inst6|LPM_COUNTER_component|auto_generated|counter_comb_bita17~COUT $end
$var wire 1 { inst6|LPM_COUNTER_component|auto_generated|counter_comb_bita18~combout $end
$var wire 1 | inst6|LPM_COUNTER_component|auto_generated|counter_comb_bita18~COUT $end
$var wire 1 } inst6|LPM_COUNTER_component|auto_generated|counter_comb_bita19~combout $end
$var wire 1 ~ inst6|LPM_COUNTER_component|auto_generated|counter_comb_bita19~COUT $end
$var wire 1 !! inst6|LPM_COUNTER_component|auto_generated|counter_comb_bita20~combout $end
$var wire 1 "! inst6|LPM_COUNTER_component|auto_generated|counter_comb_bita20~COUT $end
$var wire 1 #! inst6|LPM_COUNTER_component|auto_generated|counter_comb_bita21~combout $end
$var wire 1 $! inst6|LPM_COUNTER_component|auto_generated|counter_comb_bita21~COUT $end
$var wire 1 %! inst6|LPM_COUNTER_component|auto_generated|counter_comb_bita22~combout $end
$var wire 1 &! inst6|LPM_COUNTER_component|auto_generated|counter_comb_bita22~COUT $end
$var wire 1 '! inst6|LPM_COUNTER_component|auto_generated|counter_comb_bita23~combout $end
$var wire 1 (! inst6|LPM_COUNTER_component|auto_generated|counter_comb_bita23~COUT $end
$var wire 1 )! inst6|LPM_COUNTER_component|auto_generated|counter_comb_bita24~combout $end
$var wire 1 *! inst6|LPM_COUNTER_component|auto_generated|counter_comb_bita24~COUT $end
$var wire 1 +! inst6|LPM_COUNTER_component|auto_generated|counter_comb_bita25~combout $end
$var wire 1 ,! inst6|LPM_COUNTER_component|auto_generated|counter_reg_bit[25]~clkctrl_outclk $end
$var wire 1 -! inst7|LPM_COUNTER_component|auto_generated|counter_comb_bita0~combout $end
$var wire 1 .! inst7|LPM_COUNTER_component|auto_generated|counter_comb_bita0~COUT $end
$var wire 1 /! inst7|LPM_COUNTER_component|auto_generated|counter_comb_bita1~combout $end
$var wire 1 0! inst7|LPM_COUNTER_component|auto_generated|counter_comb_bita1~COUT $end
$var wire 1 1! inst7|LPM_COUNTER_component|auto_generated|counter_comb_bita2~combout $end
$var wire 1 2! inst7|LPM_COUNTER_component|auto_generated|counter_comb_bita2~COUT $end
$var wire 1 3! inst7|LPM_COUNTER_component|auto_generated|counter_comb_bita3~combout $end
$var wire 1 4! inst|WideOr0~0_combout $end
$var wire 1 5! inst|WideOr1~0_combout $end
$var wire 1 6! inst|WideOr2~0_combout $end
$var wire 1 7! inst|WideOr3~0_combout $end
$var wire 1 8! inst|WideOr4~0_combout $end
$var wire 1 9! inst|WideOr5~0_combout $end
$var wire 1 :! inst|WideOr6~0_combout $end
$var wire 1 ;! inst7|LPM_COUNTER_component|auto_generated|counter_reg_bit [3] $end
$var wire 1 <! inst7|LPM_COUNTER_component|auto_generated|counter_reg_bit [2] $end
$var wire 1 =! inst7|LPM_COUNTER_component|auto_generated|counter_reg_bit [1] $end
$var wire 1 >! inst7|LPM_COUNTER_component|auto_generated|counter_reg_bit [0] $end
$var wire 1 ?! inst6|LPM_COUNTER_component|auto_generated|counter_reg_bit [25] $end
$var wire 1 @! inst6|LPM_COUNTER_component|auto_generated|counter_reg_bit [24] $end
$var wire 1 A! inst6|LPM_COUNTER_component|auto_generated|counter_reg_bit [23] $end
$var wire 1 B! inst6|LPM_COUNTER_component|auto_generated|counter_reg_bit [22] $end
$var wire 1 C! inst6|LPM_COUNTER_component|auto_generated|counter_reg_bit [21] $end
$var wire 1 D! inst6|LPM_COUNTER_component|auto_generated|counter_reg_bit [20] $end
$var wire 1 E! inst6|LPM_COUNTER_component|auto_generated|counter_reg_bit [19] $end
$var wire 1 F! inst6|LPM_COUNTER_component|auto_generated|counter_reg_bit [18] $end
$var wire 1 G! inst6|LPM_COUNTER_component|auto_generated|counter_reg_bit [17] $end
$var wire 1 H! inst6|LPM_COUNTER_component|auto_generated|counter_reg_bit [16] $end
$var wire 1 I! inst6|LPM_COUNTER_component|auto_generated|counter_reg_bit [15] $end
$var wire 1 J! inst6|LPM_COUNTER_component|auto_generated|counter_reg_bit [14] $end
$var wire 1 K! inst6|LPM_COUNTER_component|auto_generated|counter_reg_bit [13] $end
$var wire 1 L! inst6|LPM_COUNTER_component|auto_generated|counter_reg_bit [12] $end
$var wire 1 M! inst6|LPM_COUNTER_component|auto_generated|counter_reg_bit [11] $end
$var wire 1 N! inst6|LPM_COUNTER_component|auto_generated|counter_reg_bit [10] $end
$var wire 1 O! inst6|LPM_COUNTER_component|auto_generated|counter_reg_bit [9] $end
$var wire 1 P! inst6|LPM_COUNTER_component|auto_generated|counter_reg_bit [8] $end
$var wire 1 Q! inst6|LPM_COUNTER_component|auto_generated|counter_reg_bit [7] $end
$var wire 1 R! inst6|LPM_COUNTER_component|auto_generated|counter_reg_bit [6] $end
$var wire 1 S! inst6|LPM_COUNTER_component|auto_generated|counter_reg_bit [5] $end
$var wire 1 T! inst6|LPM_COUNTER_component|auto_generated|counter_reg_bit [4] $end
$var wire 1 U! inst6|LPM_COUNTER_component|auto_generated|counter_reg_bit [3] $end
$var wire 1 V! inst6|LPM_COUNTER_component|auto_generated|counter_reg_bit [2] $end
$var wire 1 W! inst6|LPM_COUNTER_component|auto_generated|counter_reg_bit [1] $end
$var wire 1 X! inst6|LPM_COUNTER_component|auto_generated|counter_reg_bit [0] $end
$upscope $end
$upscope $end
$enddefinitions $end
#0
$dumpvars
0!
0)
0(
0'
0&
0%
0$
0#
0"
x1
x0
x/
x.
x-
x,
x+
1*
x2
03
14
x5
16
17
18
09
0:
0;
0<
0=
0>
0?
0@
1A
xB
xC
xD
xE
xF
xG
xH
0I
xJ
xK
0L
xM
xN
xO
xP
xQ
xR
xS
xT
xU
xV
xW
xX
xY
xZ
x[
x\
x]
x^
x_
x`
xa
xb
xc
xd
xe
xf
xg
xh
xi
xj
xk
xl
xm
xn
xo
xp
xq
xr
xs
xt
xu
xv
xw
xx
xy
xz
x{
x|
x}
x~
x!!
x"!
x#!
x$!
x%!
x&!
x'!
x(!
x)!
x*!
x+!
x,!
x-!
x.!
x/!
x0!
x1!
x2!
x3!
x4!
x5!
x6!
x7!
x8!
x9!
x:!
0>!
0=!
0<!
0;!
0X!
0W!
0V!
0U!
0T!
0S!
0R!
0Q!
0P!
0O!
0N!
0M!
0L!
0K!
0J!
0I!
0H!
0G!
0F!
0E!
0D!
0C!
0B!
0A!
0@!
0?!
$end
#208
0J
#533
0M
0S
#535
0N
#724
0R
#841
0&!
#842
0`
#846
0h
#848
0\
#849
0*!
#854
0t
#855
0d
#856
0"!
#858
02!
#859
0p
0l
0X
0.!
#860
0|
0x
#867
0O
#893
0Q
#910
1-!
#914
1K
#981
1^
#984
1f
#986
1j
#988
1b
#989
1(!
#997
1~
#998
1r
1n
#999
1v
1Z
#1000
1U
1$!
1z
#1002
10!
#1084
0P
#1100
0T
#1143
0,!
#1164
09!
#1260
08!
#1261
04!
05!
#1418
0'!
#1419
0a
#1423
0i
#1425
0]
#1426
0+!
#1431
0u
#1432
0e
#1433
0#!
#1435
03!
#1436
0/!
0Y
0m
0q
#1437
0y
0}
#1448
06!
#1488
07!
#1490
0:!
#1558
0_
#1561
0g
#1563
0k
#1565
0c
#1566
0)!
#1574
0!!
#1575
0o
0s
#1576
0[
0w
#1577
0{
0%!
0V
#1579
01!
#2347
0W
#4928
0C
0,
#5087
0D
0-
#5129
0G
00
#5169
0H
01
#5238
1B
1+
#5254
0F
0/
#5486
0E
0.
