eda_001_and2_20200524/simulation/qsim/my_and2.msim.vcd
$comment
	File created using the following command:
		vcd file my_and2.msim.vcd -direction
$end
$date
	Thu Jun 04 13:09:55 2020
$end
$version
	ModelSim Version 10.1d
$end
$timescale
	1ps
$end
$scope module my_and2_vlg_vec_tst $end
$var reg 1 ! input1_1 $end
$var reg 1 " input2_2 $end
$var wire 1 # output_3 $end
$var wire 1 $ sampler $end
$scope module i1 $end
$var wire 1 % gnd $end
$var wire 1 & vcc $end
$var wire 1 ' unknown $end
$var tri1 1 ( devclrn $end
$var tri1 1 ) devpor $end
$var tri1 1 * devoe $end
$var wire 1 + output_3~output_o $end
$var wire 1 , input1_1~input_o $end
$var wire 1 - input2_2~input_o $end
$var wire 1 . inst~combout $end
$upscope $end
$upscope $end
$enddefinitions $end
#0
$dumpvars
0!
0"
x#
x$
0%
1&
x'
1(
1)
1*
x+
0,
0-
x.
$end
#3377
0.
#6649
0+
0#
#7680000
1!
0$
#7680749
1,
#15360000
1"
1$
#15360749
1-
#15363916
1.
#15367333
1+
1#
#20480000
0!
0$
#20480858
0,
#20484513
0.
#20487785
0+
0#
#30720000
0"
1$
#30720858
0-
