eda_004_cnt_10_20200614/simulation/qsim/cnt10.msim.vcd
$comment
	File created using the following command:
		vcd file cnt10.msim.vcd -direction
$end
$date
	Sun Jun 14 10:39:45 2020
$end
$version
	ModelSim Version 10.1d
$end
$timescale
	1ps
$end
$scope module cnt10_vlg_vec_tst $end
$var reg 1 ! clk $end
$var reg 4 " din [3:0] $end
$var reg 1 # en $end
$var reg 1 $ load $end
$var reg 1 % rst $end
$var reg 1 & updown $end
$var wire 1 ' co $end
$var wire 1 ( q [3] $end
$var wire 1 ) q [2] $end
$var wire 1 * q [1] $end
$var wire 1 + q [0] $end
$var wire 1 , sampler $end
$scope module i1 $end
$var wire 1 - gnd $end
$var wire 1 . vcc $end
$var wire 1 / unknown $end
$var tri1 1 0 devclrn $end
$var tri1 1 1 devpor $end
$var tri1 1 2 devoe $end
$var wire 1 3 co~output_o $end
$var wire 1 4 q[0]~output_o $end
$var wire 1 5 q[1]~output_o $end
$var wire 1 6 q[2]~output_o $end
$var wire 1 7 q[3]~output_o $end
$var wire 1 8 clk~input_o $end
$var wire 1 9 clk~inputclkctrl_outclk $end
$var wire 1 : updown~input_o $end
$var wire 1 ; din[0]~input_o $end
$var wire 1 < load~input_o $end
$var wire 1 = q~3_combout $end
$var wire 1 > rst~input_o $end
$var wire 1 ? rst~inputclkctrl_outclk $end
$var wire 1 @ en~input_o $end
$var wire 1 A q[0]~reg0_q $end
$var wire 1 B q~5_combout $end
$var wire 1 C q~4_combout $end
$var wire 1 D q[1]~0_combout $end
$var wire 1 E din[1]~input_o $end
$var wire 1 F q[1]~reg0_q $end
$var wire 1 G q[2]~6_combout $end
$var wire 1 H q[2]~1_combout $end
$var wire 1 I din[2]~input_o $end
$var wire 1 J q[2]~reg0_q $end
$var wire 1 K Add1~0_combout $end
$var wire 1 L q~7_combout $end
$var wire 1 M q[3]~2_combout $end
$var wire 1 N din[3]~input_o $end
$var wire 1 O q[3]~reg0_q $end
$var wire 1 P co~0_combout $end
$var wire 1 Q co~1_combout $end
$var wire 1 R co~reg0_q $end
$upscope $end
$upscope $end
$enddefinitions $end
#0
$dumpvars
0!
b0 "
1#
0$
0%
0&
x'
x+
x*
x)
x(
x,
0-
1.
x/
10
11
12
x3
x4
x5
x6
x7
08
x9
0:
0;
0<
x=
0>
x?
1@
0A
xB
xC
xD
0E
0F
xG
xH
0I
0J
xK
xL
xM
0N
0O
xP
xQ
0R
$end
#208
0?
09
#961
0L
#968
0K
#972
1B
#1098
0H
#1099
1C
#1493
0D
#1670
1=
#2031
0P
#2040
0M
#2061
0Q
#2065
1G
#3798
06
0)
#3809
05
0*
#4411
04
0+
#4481
07
0(
#5834
03
0'
#2500000
1!
0,
#2500766
18
#2500988
19
#5000000
0!
1,
#5000812
08
#5001020
09
#7500000
1!
0,
#7500766
18
#7500988
19
#10000000
0!
1,
#10000812
08
#10001020
09
#12500000
1!
0,
#12500766
18
#12500988
19
#15000000
0!
1,
#15000812
08
#15001020
09
#17500000
1!
0,
#17500766
18
#17500988
19
#20000000
0!
1,
#20000812
08
#20001020
09
#22500000
1!
0,
#22500766
18
#22500988
19
#23040000
1%
1,
#23040766
1>
#23040988
1?
#25000000
0!
0,
#25000812
08
#25001020
09
#27500000
1!
1,
#27500766
18
#27500988
19
#27502847
1A
#27503329
0=
#27503722
1K
#27503739
0C
#27504174
1D
#27507440
14
1+
#30000000
0!
0,
#30000812
08
#30001020
09
#32500000
1!
1,
#32500766
18
#32500988
19
#32502847
0A
1F
#32503309
1=
#32503552
1P
#32506752
15
1*
#32507258
04
0+
#35000000
0!
0,
#35000812
08
#35001020
09
#37500000
1!
1,
#37500766
18
#37500988
19
#37502847
1A
#37503329
0=
#37503366
0B
#37503367
0G
#37503707
1C
#37503803
1H
#37504101
0D
#37507440
14
1+
#40000000
0!
0,
#40000812
08
#40001020
09
#42500000
1!
1,
#42500766
18
#42500988
19
#42502847
0A
0F
1J
#42503309
1=
#42503329
0H
#42503487
1G
#42503904
1H
#42506656
05
0*
#42506740
16
1)
#42507258
04
0+
#45000000
0!
0,
#45000812
08
#45001020
09
#47500000
1!
1,
#47500766
18
#47500988
19
#47502847
1A
#47503329
0=
#47503388
1B
#47503739
0C
#47504174
1D
#47507440
14
1+
#50000000
0!
0,
#50000812
08
#50001020
09
#52500000
1!
1,
#52500766
18
#52500988
19
#52502847
0A
1F
#52503309
1=
#52506752
15
1*
#52507258
04
0+
#55000000
0!
0,
#55000812
08
#55001020
09
#57500000
1!
1,
#57500766
18
#57500988
19
#57502847
1A
#57503329
0=
#57503366
0B
#57503367
0G
#57503391
1L
#57503707
1C
#57503781
0H
#57503805
1M
#57504101
0D
#57507440
14
1+
#60000000
0!
0,
#60000812
08
#60001020
09
#62500000
1!
1,
#62500766
18
#62500988
19
#62502847
0A
0F
0J
1O
#62503309
1H
1=
#62503358
0K
#62503487
1G
#62503576
0P
#62503833
1K
#62503882
0H
#62506645
06
0)
#62506656
05
0*
#62507258
04
0+
#62507489
17
1(
#65000000
0!
0,
#65000812
08
#65001020
09
#67500000
1!
1,
#67500766
18
#67500988
19
#67502847
1A
#67503329
0=
#67503369
0L
#67503388
1B
#67503702
0K
#67503743
1Q
#67503779
0M
#67507440
14
1+
#70000000
0!
0,
#70000812
08
#70001020
09
#72500000
1!
1,
#72500766
18
#72500988
19
#72502847
0A
0O
1R
#72503309
1=
#72503846
0Q
#72507258
04
0+
#72507328
07
0(
#72508771
13
1'
#75000000
0!
0,
#75000812
08
#75001020
09
#77500000
1!
1,
#77500766
18
#77500988
19
#77502847
1A
0R
#77503329
0=
#77503722
1K
#77503739
0C
#77504174
1D
#77507440
14
1+
#77508681
03
0'
#80000000
0!
0,
#80000812
08
#80001020
09
#82500000
1!
1,
#82500766
18
#82500988
19
#82502847
0A
1F
#82503309
1=
#82503552
1P
#82506752
15
1*
#82507258
04
0+
#85000000
0!
0,
#85000812
08
#85001020
09
#87500000
1!
1,
#87500766
18
#87500988
19
#87502847
1A
#87503329
0=
#87503366
0B
#87503367
0G
#87503707
1C
#87503803
1H
#87504101
0D
#87507440
14
1+
#90000000
0!
0,
#90000812
08
#90001020
09
#92500000
1!
1,
#92500766
18
#92500988
19
#92502847
0A
0F
1J
#92503309
1=
#92503329
0H
#92503487
1G
#92503904
1H
#92506656
05
0*
#92506740
16
1)
#92507258
04
0+
#95000000
0!
0,
#95000812
08
#95001020
09
#97500000
1!
1,
#97500766
18
#97500988
19
#97502847
1A
#97503329
0=
#97503388
1B
#97503739
0C
#97504174
1D
#97507440
14
1+
