eda_006_dled_20200621/simulation/qsim/dled_17990425.msim.vcd
$comment
	File created using the following command:
		vcd file dled_17990425.msim.vcd -direction
$end
$date
	Sun Jun 21 09:19:29 2020
$end
$version
	ModelSim Version 10.1d
$end
$timescale
	1ps
$end
$scope module dled_17990425_vlg_vec_tst $end
$var reg 1 ! CLK48M $end
$var wire 1 " dig [7] $end
$var wire 1 # dig [6] $end
$var wire 1 $ dig [5] $end
$var wire 1 % dig [4] $end
$var wire 1 & dig [3] $end
$var wire 1 ' dig [2] $end
$var wire 1 ( dig [1] $end
$var wire 1 ) dig [0] $end
$var wire 1 * seg [7] $end
$var wire 1 + seg [6] $end
$var wire 1 , seg [5] $end
$var wire 1 - seg [4] $end
$var wire 1 . seg [3] $end
$var wire 1 / seg [2] $end
$var wire 1 0 seg [1] $end
$var wire 1 1 seg [0] $end
$var wire 1 2 sampler $end
$scope module i1 $end
$var wire 1 3 gnd $end
$var wire 1 4 vcc $end
$var wire 1 5 unknown $end
$var tri1 1 6 devclrn $end
$var tri1 1 7 devpor $end
$var tri1 1 8 devoe $end
$var wire 1 9 dig[7]~output_o $end
$var wire 1 : dig[6]~output_o $end
$var wire 1 ; dig[5]~output_o $end
$var wire 1 < dig[4]~output_o $end
$var wire 1 = dig[3]~output_o $end
$var wire 1 > dig[2]~output_o $end
$var wire 1 ? dig[1]~output_o $end
$var wire 1 @ dig[0]~output_o $end
$var wire 1 A seg[7]~output_o $end
$var wire 1 B seg[6]~output_o $end
$var wire 1 C seg[5]~output_o $end
$var wire 1 D seg[4]~output_o $end
$var wire 1 E seg[3]~output_o $end
$var wire 1 F seg[2]~output_o $end
$var wire 1 G seg[1]~output_o $end
$var wire 1 H seg[0]~output_o $end
$var wire 1 I CLK48M~input_o $end
$var wire 1 J CLK48M~inputclkctrl_outclk $end
$var wire 1 K inst1|LPM_COUNTER_component|auto_generated|counter_comb_bita0~combout $end
$var wire 1 L inst1|LPM_COUNTER_component|auto_generated|counter_comb_bita0~COUT $end
$var wire 1 M inst1|LPM_COUNTER_component|auto_generated|counter_comb_bita1~combout $end
$var wire 1 N inst1|LPM_COUNTER_component|auto_generated|counter_comb_bita1~COUT $end
$var wire 1 O inst1|LPM_COUNTER_component|auto_generated|counter_comb_bita2~combout $end
$var wire 1 P inst5|Decoder0~0_combout $end
$var wire 1 Q inst5|Decoder0~1_combout $end
$var wire 1 R inst5|Decoder0~2_combout $end
$var wire 1 S inst5|Decoder0~3_combout $end
$var wire 1 T inst5|Decoder0~4_combout $end
$var wire 1 U inst5|Decoder0~5_combout $end
$var wire 1 V inst5|Decoder0~6_combout $end
$var wire 1 W inst5|Decoder0~7_combout $end
$var wire 1 X inst4|WideOr0~0_combout $end
$var wire 1 Y inst4|WideOr1~0_combout $end
$var wire 1 Z inst4|WideOr2~combout $end
$var wire 1 [ inst4|WideOr3~0_combout $end
$var wire 1 \ inst4|WideOr5~0_combout $end
$var wire 1 ] inst4|WideOr6~0_combout $end
$var wire 1 ^ inst1|LPM_COUNTER_component|auto_generated|counter_reg_bit [2] $end
$var wire 1 _ inst1|LPM_COUNTER_component|auto_generated|counter_reg_bit [1] $end
$var wire 1 ` inst1|LPM_COUNTER_component|auto_generated|counter_reg_bit [0] $end
$upscope $end
$upscope $end
$enddefinitions $end
#0
$dumpvars
0!
x)
x(
x'
x&
x%
x$
x#
x"
x1
x0
x/
x.
x-
x,
x+
1*
x2
03
14
x5
16
17
18
x9
x:
x;
x<
x=
x>
x?
x@
1A
xB
xC
xD
xE
xF
xG
xH
0I
xJ
xK
xL
xM
xN
xO
xP
xQ
xR
xS
xT
xU
xV
xW
xX
xY
xZ
x[
x\
x]
0`
0_
0^
$end
#208
0J
#693
0V
#694
0W
#695
0T
#697
0U
#858
0L
#909
1K
#952
0\
#999
1N
#1236
0X
#1238
0R
1[
#1240
1P
#1247
0Q
#1254
1Z
#1260
0S
#1276
0]
#1278
1Y
#1435
0M
#1576
0O
#4390
1?
1(
#4399
1>
1'
#4619
0G
00
#4720
1=
1&
#5090
1@
1)
#5134
1;
1$
#5281
1<
1%
#5379
09
0"
#5401
1D
1-
#5681
1B
1+
#5724
0F
1:
0/
1#
#5782
1C
1,
#6735
1H
11
#6849
1E
1.
#2000000
1!
02
#2000766
1I
#2000988
1J
#2002880
1`
#2003713
0K
#2003805
1L
#2004039
1X
#2004047
1Q
#2004050
1]
#2004053
0[
#2004054
0P
#2004064
0Z
#2004412
1M
#2008001
19
1"
#2008067
0D
0-
#2008627
0B
0+
#2008682
0:
0#
#2008683
1F
1/
#2009590
0H
01
#2009624
0E
0.
#4000000
0!
12
#4000812
0I
#4001020
0J
#6000000
1!
02
#6000766
1I
#6000988
1J
#6002880
0`
1_
#6003659
0N
#6003724
0M
#6003738
0L
#6003789
1K
#6003811
1N
#6004034
1Z
#6004074
0Q
#6004156
1R
#6004345
1M
#6008181
1D
1-
#6008234
0;
0$
#6008551
0F
1:
0/
1#
#8000000
0!
12
#8000812
0I
#8001020
0J
#10000000
1!
02
#10000766
1I
#10000988
1J
#10002880
1`
#10003713
0K
#10003805
1L
#10003878
0N
#10004023
1[
#10004025
1S
#10004060
0]
#10004066
0Y
#10004067
0R
#10004382
0M
#10004485
1O
#10007963
1;
1$
#10008191
0<
0%
#10008438
0C
0,
#10009519
1H
11
#10009634
1E
1.
#12000000
0!
12
#12000812
0I
#12001020
0J
#14000000
1!
02
#14000766
1I
#14000988
1J
#14002880
0`
0_
#14003376
1^
#14003738
0L
#14003789
1K
#14003879
1N
#14003959
0[
#14003982
1]
#14003985
1T
#14004140
0S
#14004378
1\
#14008155
0=
0&
#14008161
1<
1%
#14008187
1G
10
#14009522
0H
01
#14009530
0E
0.
#16000000
0!
12
#16000812
0I
#16001020
0J
#18000000
1!
02
#18000766
1I
#18000988
1J
#18002880
1`
#18003713
0K
#18003805
1L
#18003982
0T
#18003984
1U
#18004064
0Z
#18004412
1M
#18007826
0>
0'
#18008007
1=
1&
#18008067
0D
0-
#20000000
0!
12
#20000812
0I
#20001020
0J
#22000000
1!
02
#22000766
1I
#22000988
1J
#22002880
0`
1_
#22003659
0N
#22003724
0M
#22003738
0L
#22003789
1K
#22003811
1N
#22004013
0U
#22004057
0\
#22004090
1V
#22004116
0X
#22004118
1[
#22004134
1Z
#22004154
1Y
#22004345
1M
#22007715
1>
1'
#22007724
0G
00
#22007924
0?
0(
#22008281
1D
1-
#22008561
1B
1+
#22008658
1C
1,
#22009729
1E
1.
#24000000
0!
12
#24000812
0I
#24001020
0J
#26000000
1!
02
#26000766
1I
#26000988
1J
#26002880
1`
#26003713
0K
#26003805
1L
#26003878
0N
#26003966
1W
#26004000
0V
#26004039
1X
#26004053
0[
#26004064
0Z
#26004066
0Y
#26004382
0M
#26004455
0O
#26007697
1?
1(
#26008067
0D
0-
#26008438
0C
0,
#26008627
0B
0+
#26008643
0@
0)
#26009624
0E
0.
#28000000
0!
12
#28000812
0I
#28001020
0J
#30000000
1!
02
#30000766
1I
#30000988
1J
#30002880
0`
0_
#30003376
0^
#30003738
0L
#30003789
1K
#30003879
1N
#30004032
1\
#30004067
0]
0X
#30004072
0W
#30004088
1[
#30004089
1P
#30004093
1Y
#30004134
1Z
#30004328
0\
#30008228
09
0"
#30008281
1D
1-
#30008468
1@
1)
#30008512
1B
1+
#30008597
1C
1,
#30009526
1H
11
#30009699
1E
1.
#32000000
0!
12
#32000812
0I
#32001020
0J
#34000000
1!
02
#34000766
1I
#34000988
1J
#34002880
1`
#34003713
0K
#34003805
1L
#34004039
1X
#34004047
1Q
#34004050
1]
#34004053
0[
#34004054
0P
#34004064
0Z
#34004412
1M
#34008001
19
1"
#34008067
0D
0-
#34008627
0B
0+
#34008682
0:
0#
#34008683
1F
1/
#34009590
0H
01
#34009624
0E
0.
#36000000
0!
12
#36000812
0I
#36001020
0J
#38000000
1!
02
#38000766
1I
#38000988
1J
#38002880
0`
1_
#38003659
0N
#38003724
0M
#38003738
0L
#38003789
1K
#38003811
1N
#38004034
1Z
#38004074
0Q
#38004156
1R
#38004345
1M
#38008181
1D
1-
#38008234
0;
0$
#38008551
0F
1:
0/
1#
#40000000
0!
12
#40000812
0I
#40001020
0J
#42000000
1!
02
#42000766
1I
#42000988
1J
#42002880
1`
#42003713
0K
#42003805
1L
#42003878
0N
#42004023
1[
#42004025
1S
#42004060
0]
#42004066
0Y
#42004067
0R
#42004382
0M
#42004485
1O
#42007963
1;
1$
#42008191
0<
0%
#42008438
0C
0,
#42009519
1H
11
#42009634
1E
1.
#44000000
0!
12
#44000812
0I
#44001020
0J
#46000000
1!
02
#46000766
1I
#46000988
1J
#46002880
0`
0_
#46003376
1^
#46003738
0L
#46003789
1K
#46003879
1N
#46003959
0[
#46003982
1]
#46003985
1T
#46004140
0S
#46004378
1\
#46008155
0=
0&
#46008161
1<
1%
#46008187
1G
10
#46009522
0H
01
#46009530
0E
0.
#48000000
0!
12
#48000812
0I
#48001020
0J
#50000000
1!
02
#50000766
1I
#50000988
1J
#50002880
1`
#50003713
0K
#50003805
1L
#50003982
0T
#50003984
1U
#50004064
0Z
#50004412
1M
#50007826
0>
0'
#50008007
1=
1&
#50008067
0D
0-
#52000000
0!
12
#52000812
0I
#52001020
0J
#54000000
1!
02
#54000766
1I
#54000988
1J
#54002880
0`
1_
#54003659
0N
#54003724
0M
#54003738
0L
#54003789
1K
#54003811
1N
#54004013
0U
#54004057
0\
#54004090
1V
#54004116
0X
#54004118
1[
#54004134
1Z
#54004154
1Y
#54004345
1M
#54007715
1>
1'
#54007724
0G
00
#54007924
0?
0(
#54008281
1D
1-
#54008561
1B
1+
#54008658
1C
1,
#54009729
1E
1.
#56000000
0!
12
#56000812
0I
#56001020
0J
#58000000
1!
02
#58000766
1I
#58000988
1J
#58002880
1`
#58003713
0K
#58003805
1L
#58003878
0N
#58003966
1W
#58004000
0V
#58004039
1X
#58004053
0[
#58004064
0Z
#58004066
0Y
#58004382
0M
#58004455
0O
#58007697
1?
1(
#58008067
0D
0-
#58008438
0C
0,
#58008627
0B
0+
#58008643
0@
0)
#58009624
0E
0.
#60000000
0!
12
#60000812
0I
#60001020
0J
#62000000
1!
02
#62000766
1I
#62000988
1J
#62002880
0`
0_
#62003376
0^
#62003738
0L
#62003789
1K
#62003879
1N
#62004032
1\
#62004067
0]
0X
#62004072
0W
#62004088
1[
#62004089
1P
#62004093
1Y
#62004134
1Z
#62004328
0\
#62008228
09
0"
#62008281
1D
1-
#62008468
1@
1)
#62008512
1B
1+
#62008597
1C
1,
#62009526
1H
11
#62009699
1E
1.
#64000000
0!
12
#64000812
0I
#64001020
0J
#66000000
1!
02
#66000766
1I
#66000988
1J
#66002880
1`
#66003713
0K
#66003805
1L
#66004039
1X
#66004047
1Q
#66004050
1]
#66004053
0[
#66004054
0P
#66004064
0Z
#66004412
1M
#66008001
19
1"
#66008067
0D
0-
#66008627
0B
0+
#66008682
0:
0#
#66008683
1F
1/
#66009590
0H
01
#66009624
0E
0.
#68000000
0!
12
#68000812
0I
#68001020
0J
#70000000
1!
02
#70000766
1I
#70000988
1J
#70002880
0`
1_
#70003659
0N
#70003724
0M
#70003738
0L
#70003789
1K
#70003811
1N
#70004034
1Z
#70004074
0Q
#70004156
1R
#70004345
1M
#70008181
1D
1-
#70008234
0;
0$
#70008551
0F
1:
0/
1#
#72000000
0!
12
#72000812
0I
#72001020
0J
#74000000
1!
02
#74000766
1I
#74000988
1J
#74002880
1`
#74003713
0K
#74003805
1L
#74003878
0N
#74004023
1[
#74004025
1S
#74004060
0]
#74004066
0Y
#74004067
0R
#74004382
0M
#74004485
1O
#74007963
1;
1$
#74008191
0<
0%
#74008438
0C
0,
#74009519
1H
11
#74009634
1E
1.
#76000000
0!
12
#76000812
0I
#76001020
0J
#78000000
1!
02
#78000766
1I
#78000988
1J
#78002880
0`
0_
#78003376
1^
#78003738
0L
#78003789
1K
#78003879
1N
#78003959
0[
#78003982
1]
#78003985
1T
#78004140
0S
#78004378
1\
#78008155
0=
0&
#78008161
1<
1%
#78008187
1G
10
#78009522
0H
01
#78009530
0E
0.
#80000000
0!
12
#80000812
0I
#80001020
0J
#82000000
1!
02
#82000766
1I
#82000988
1J
#82002880
1`
#82003713
0K
#82003805
1L
#82003982
0T
#82003984
1U
#82004064
0Z
#82004412
1M
#82007826
0>
0'
#82008007
1=
1&
#82008067
0D
0-
#84000000
0!
12
#84000812
0I
#84001020
0J
#86000000
1!
02
#86000766
1I
#86000988
1J
#86002880
0`
1_
#86003659
0N
#86003724
0M
#86003738
0L
#86003789
1K
#86003811
1N
#86004013
0U
#86004057
0\
#86004090
1V
#86004116
0X
#86004118
1[
#86004134
1Z
#86004154
1Y
#86004345
1M
#86007715
1>
1'
#86007724
0G
00
#86007924
0?
0(
#86008281
1D
1-
#86008561
1B
1+
#86008658
1C
1,
#86009729
1E
1.
#88000000
0!
12
#88000812
0I
#88001020
0J
#90000000
1!
02
#90000766
1I
#90000988
1J
#90002880
1`
#90003713
0K
#90003805
1L
#90003878
0N
#90003966
1W
#90004000
0V
#90004039
1X
#90004053
0[
#90004064
0Z
#90004066
0Y
#90004382
0M
#90004455
0O
#90007697
1?
1(
#90008067
0D
0-
#90008438
0C
0,
#90008627
0B
0+
#90008643
0@
0)
#90009624
0E
0.
#92000000
0!
12
#92000812
0I
#92001020
0J
#94000000
1!
02
#94000766
1I
#94000988
1J
#94002880
0`
0_
#94003376
0^
#94003738
0L
#94003789
1K
#94003879
1N
#94004032
1\
#94004067
0]
0X
#94004072
0W
#94004088
1[
#94004089
1P
#94004093
1Y
#94004134
1Z
#94004328
0\
#94008228
09
0"
#94008281
1D
1-
#94008468
1@
1)
#94008512
1B
1+
#94008597
1C
1,
#94009526
1H
11
#94009699
1E
1.
#96000000
0!
12
#96000812
0I
#96001020
0J
#98000000
1!
02
#98000766
1I
#98000988
1J
#98002880
1`
#98003713
0K
#98003805
1L
#98004039
1X
#98004047
1Q
#98004050
1]
#98004053
0[
#98004054
0P
#98004064
0Z
#98004412
1M
#98008001
19
1"
#98008067
0D
0-
#98008627
0B
0+
#98008682
0:
0#
#98008683
1F
1/
#98009590
0H
01
#98009624
0E
0.
